{
  "project_info": {
    "project_number": "200626585187",
    "firebase_url": "https://react-native-push-notifi-fa8ba.firebaseio.com",
    "project_id": "react-native-push-notifi-fa8ba",
    "storage_bucket": "react-native-push-notifi-fa8ba.appspot.com"
  },
  "client": [
    {
      "client_info": {
        "mobilesdk_app_id": "1:200626585187:android:ce661ffc6243f1fee00256",
        "android_client_info": {
          "package_name": "com.reactnativefcm"
        }
      },
      "oauth_client": [
        {
          "client_id": "200626585187-umsseio6vmgviv20i08376qgbn3mp6hs.apps.googleusercontent.com",
          "client_type": 3
        }
      ],
      "api_key": [
        {
          "current_key": "AIzaSyDniBdpTL7BEIBe7bIA49_ISXiuiKZcob4"
        }
      ],
      "services": {
        "appinvite_service": {
          "other_platform_oauth_client": [
            {
              "client_id": "200626585187-umsseio6vmgviv20i08376qgbn3mp6hs.apps.googleusercontent.com",
              "client_type": 3
            }
          ]
        }
      }
    }
  ],
  "configuration_version": "1"
}